w0=-1.7902
w1=3.0046
ID=    1, output=       22.3099, target value =    21.2160, squared error = 1.1967
ID=    2, output=       24.6126, target value =    35.0724, squared error = 109.4065
ID=    3, output=      -18.5446, target value =    -8.5063, squared error = 100.7666
ID=    4, output=       -2.8316, target value =     0.4010, squared error = 10.4498
ID=    5, output=       -9.2409, target value =    -7.0776, squared error = 4.6800
ID=    6, output=       -0.3613, target value =    -4.4076, squared error = 16.3729
ID=    7, output=      -15.9192, target value =   -17.8614, squared error = 3.7722
ID=    8, output=      -27.7283, target value =   -29.7568, squared error = 4.1148
ID=    9, output=       -5.6165, target value =    -4.2145, squared error = 1.9657
ID=   10, output=      -21.3887, target value =   -20.1199, squared error = 1.6098
ID=   11, output=      -30.2671, target value =   -30.1081, squared error = 0.0253
ID=   12, output=       25.5320, target value =    24.2598, squared error = 1.6186
ID=   13, output=       -5.9609, target value =    -8.9418, squared error = 8.8860
ID=   14, output=       25.9455, target value =    25.7095, squared error = 0.0557
ID=   15, output=       13.9786, target value =    17.1623, squared error = 10.1359
ID=   16, output=      -31.3942, target value =   -30.2770, squared error = 1.2480
ID=   17, output=        9.0286, target value =     9.3454, squared error = 0.1004
ID=   18, output=       10.5856, target value =    12.3295, squared error = 3.0413
ID=   19, output=        6.9308, target value =     8.4605, squared error = 2.3400
ID=   20, output=        1.3531, target value =    -3.7108, squared error = 25.6435
ID=   21, output=      -18.7293, target value =   -18.8572, squared error = 0.0163
ID=   22, output=       14.5765, target value =    13.0641, squared error = 2.2874
ID=   23, output=      -18.1332, target value =   -24.4204, squared error = 39.5285
ID=   24, output=       -9.5501, target value =   -13.7338, squared error = 17.5033
ID=   25, output=       21.7012, target value =    20.4961, squared error = 1.4523
ID=   26, output=       19.6248, target value =    21.8589, squared error = 4.9913
ID=   27, output=       -7.6530, target value =    -8.5419, squared error = 0.7901
ID=   28, output=      -12.7256, target value =   -12.1321, squared error = 0.3523
ID=   29, output=        4.7378, target value =     1.8242, squared error = 8.4889
ID=   30, output=       22.8589, target value =    16.1398, squared error = 45.1461
ID=   31, output=       22.7931, target value =    22.8276, squared error = 0.0012
ID=   32, output=        3.7138, target value =     0.6421, squared error = 9.4355
ID=   33, output=      -11.8513, target value =    -8.5279, squared error = 11.0450
ID=   34, output=       19.4259, target value =    24.3891, squared error = 24.6336
ID=   35, output=       -5.2515, target value =    -6.5712, squared error = 1.7417
ID=   36, output=       22.5079, target value =    25.8399, squared error = 11.1019
ID=   37, output=      -29.8420, target value =   -27.1483, squared error = 7.2560
ID=   38, output=        0.1582, target value =    -4.2995, squared error = 19.8713
ID=   39, output=       11.2192, target value =    10.8898, squared error = 0.1085
ID=   40, output=      -21.0615, target value =   -20.4585, squared error = 0.3636
ID=   41, output=      -11.6130, target value =   -10.2390, squared error = 1.8880
ID=   42, output=      -20.5558, target value =   -18.7069, squared error = 3.4185
ID=   43, output=      -12.4910, target value =   -10.6612, squared error = 3.3481
ID=   44, output=       -7.5677, target value =    -5.7334, squared error = 3.3646
ID=   45, output=        1.1281, target value =    -0.0238, squared error = 1.3269
ID=   46, output=      -28.9070, target value =   -27.9380, squared error = 0.9389
ID=   47, output=        1.3784, target value =    -5.5948, squared error = 48.6252
ID=   48, output=      -15.3222, target value =   -19.0164, squared error = 13.6474
ID=   49, output=      -17.3238, target value =   -13.9040, squared error = 11.6951
ID=   50, output=      -17.2250, target value =   -19.3935, squared error = 4.7026
